TradeMe API
…
## Response [https://api.tmsandbox.co.nz/v1/Search/Property/Residential.json]
##   Date: 2024-08-01 21:00
##   Status: 200
##   Content-Type: application/json
##   Size: 109 kB

Yay!

dat <- fromJSON(content(result, as='text'))

## No encoding supplied: defaulting to UTF-8.

dat$List %>% as_tibble()

## # A tibble: 50 × 51
##     ListingId Title          Category StartPrice StartDate EndDate ListingLength
##         <dbl> <chr>          <chr>         <int> <chr>     <chr>   <lgl>        
##  1 2149640393 ZLAYJYHFFMD06… 0350-57…          0 /Date(17… /Date(… NA           
##  2 2149640392 WUR0MC25TYU1U… 0350-57…          0 /Date(17… /Date(… NA           
##  3 2149640391 GMKHGIRTXXQFP… 0350-57…          0 /Date(17… /Date(… NA           
##  4 2149640390 M44FBJNN1ILNB… 0350-57…          0 /Date(17… /Date(… NA           
##  5 2149640389 HJMWCNE6QOA6W… 0350-57…          0 /Date(17… /Date(… NA           
##  6 2149640382 Vendor has in… 0350-57…          0 /Date(17… /Date(… NA           
##  7 2149640381 Urgent Sale! … 0350-57…          0 /Date(17… /Date(… NA           
##  8 2149640373 Luxurious Exe… 0350-57…          0 /Date(17… /Date(… NA           
##  9 2149640325 G9P4JIMTY2W43… 0350-57…          0 /Date(17… /Date(… NA           
## 10 2149640324 JPJPLAFUF2XZ9… 0350-72…          0 /Date(17… /Date(… NA           
## # ℹ 40 more rows
## # ℹ 44 more variables: IsFeatured <lgl>, HasGallery <lgl>, IsBold <lgl>,
## #   IsHighlighted <lgl>, AsAt <chr>, CategoryPath <chr>, PictureHref <chr>,
## #   RegionId <int>, Region <chr>, SuburbId <int>, Suburb <chr>, NoteDate <chr>,
## #   ReserveState <int>, IsClassified <lgl>, OpenHomes <list>,
## #   GeographicLocation <df[,5]>, PriceDisplay <chr>, IsSuperFeatured <lgl>,
## #   PhotoUrls <list>, AdditionalData <df[,2]>, ListingExtras <list>, …
…
